01
00
00
00
01
00
00
01
00
00
00
01
00
00
00
01
00
00
00
01
00
00
00
01
00
00
00
01
00
00
00
01
00
00
00
01
00
00
00
01
00
00
00
01
00
00
00
01
00
00
00
01
00
00
00
00
80
01
00
00
80
01
00
00
80
01
00
00
80
01
00
46
00
01
00
01
00
01
00
00
00
22
22
22
22
33
33
33
33
55
55
55
55
00
00
00
00
00
00
00
00
00
00
00
00
00
00
00
00
00
00
00
00
00
00
00
00
00
00
00
F2
52
05
10
0D
FC
0C
44
